<svg viewBox="0 0 550 75" width="550px" height="75px" xmlns="http://www.w3.org/2000/svg">
  <style>
    .label {
      font-family: sans-serif; 
      text-anchor: middle;
    }
    .interval {
      stroke: none;
      font-family: sans-serif; 
      text-anchor: middle;
    }
  </style>
  <defs>
    <marker id="arrow" viewBox="0 0 10 10" refX="5" refY="5" markerWidth="10" markerHeight="10" orient="auto-start-reverse">
      <path d="M 0 2.5 L 10 5 L 0 7.5 z"></path>
    </marker>
  </defs>
  <rect width="100%" height="100%" fill="white"></rect>
  <!-- X axes with a arrowhead in both direction -->
  <polyline points="12.5,37.5 537.5,37.5" fill="none" stroke="black" marker-start="url(#arrow)" marker-end="url(#arrow)"></polyline>
  <g transform="translate(25)">
    <!-- add tick marks -->
    <g id="ticks" transform="translate(0 37.5)">
      <g transform="translate(0)"><text x="0" y="0" dx="0" dy="30" class="label">0</text><path d="M 0 -5 L 0 5" stroke="black"></path></g><g transform="translate(50)"><text x="0" y="0" dx="0" dy="30" class="label">1</text><path d="M 0 -5 L 0 5" stroke="black"></path></g><g transform="translate(100)"><text x="0" y="0" dx="0" dy="30" class="label">2</text><path d="M 0 -5 L 0 5" stroke="black"></path></g><g transform="translate(150)"><text x="0" y="0" dx="0" dy="30" class="label">3</text><path d="M 0 -5 L 0 5" stroke="black"></path></g><g transform="translate(200)"><text x="0" y="0" dx="0" dy="30" class="label">4</text><path d="M 0 -5 L 0 5" stroke="black"></path></g><g transform="translate(250)"><text x="0" y="0" dx="0" dy="30" class="label">5</text><path d="M 0 -5 L 0 5" stroke="black"></path></g><g transform="translate(300)"><text x="0" y="0" dx="0" dy="30" class="label">6</text><path d="M 0 -5 L 0 5" stroke="black"></path></g><g transform="translate(350)"><text x="0" y="0" dx="0" dy="30" class="label">7</text><path d="M 0 -5 L 0 5" stroke="black"></path></g><g transform="translate(400)"><text x="0" y="0" dx="0" dy="30" class="label">8</text><path d="M 0 -5 L 0 5" stroke="black"></path></g><g transform="translate(450)"><text x="0" y="0" dx="0" dy="30" class="label">9</text><path d="M 0 -5 L 0 5" stroke="black"></path></g><g transform="translate(500)"><text x="0" y="0" dx="0" dy="30" class="label">10</text><path d="M 0 -5 L 0 5" stroke="black"></path></g>
    </g>
    <!-- Add intervals -->
    <g class="graph-lines" transform="translate(0 37.5)">
      <g style="stroke:red; fill:red" transform="translate(0,-10)">
        <polyline points="0,0 150,0" fill="none" stroke-width="5" stroke="red">
        </polyline>
        <g transform=" translate(0,0) ">
          <path d="M 0 10 L 0 -10 "></path>
          <circle cx="0" cy="0" r="5"></circle>
        </g> 
        <g transform=" translate(150,0) ">
          <path d="M 0 10 L 0 -10 "></path>
          <path d="M -5 2.5 L 5 0 L -5 -2.5 z"></path>
        </g>
      </g>
      <g style="stroke:green; fill:green" transform="translate(0,-20)">
        <polyline points="150,0 350,0" fill="none" stroke-width="2">
        </polyline>
        <g transform=" translate(150,0) ">
          <path d="M 0 10 L 0 -10 "></path>
          <circle cx="0" cy="0" r="5"></circle>
        </g> 
        <g transform=" translate(350,0) ">
          <path d="M 0 10 L 0 -10 "></path>
          <path d="M -5 2.5 L 5 0 L -5 -2.5 z"></path>
        </g>
      </g>      
    </g>
  </g>
</svg>