<svg viewBox="0 0 100 100" width="500" height="500" xmlns="http://www.w3.org/2000/svg">  
  <style>
    .label {font: 10px sans-serif;}
    circle {mix-blend-mode: exclusion;}
    svg {isolation: isolate;}
  </style>
  <rect x="0" y="0" width="100" height="100" stroke="none" stroke-width="1" fill="transparent"></rect>

  <circle cx="50" cy="37" r="26" stroke="none" stroke-width="0.5" fill="#930000" fill-opacity="1" ></circle>
  
  <circle cx="64" cy="62" r="26" stroke="none" stroke-width="0.5" fill="#006500" fill-opacity="1"></circle>

  <circle cx="36" cy="62" r="26" stroke="none" stroke-width="0.5" fill="#0000A8" fill-opacity="1"></circle>

</svg>  