<svg xmlns="http://www.w3.org/2000/svg" width="200" height="200" viewBox="0 0 200 200" style="border: 1px solid gray;">
  <!-- this path is for a cubic Bezier.
 M gives us a starting point, then C takes the two control points and end point -->
  <path d="M 50,20 C 180,180 20,180 150,20" fill="none" stroke="blue"/>
  
</svg>