<svg width="200" height="200" viewBox="0 0 210 210" preserveAspectRatio="xMinYMin meet" xmlns="http://www.w3.org/2000/svg">
    <rect x="0" y="0" width="210" height="210" fill="none" stroke="none"></rect>
    <g transform="translate(105,105)">
      <path d="M 100,0 A 100 100 0 0 0 6.1232339957368E-15,-100 L 0 0" fill="red"></path>
      <path d="M 6.1232339957368E-15,-100 A 100 100 0 0 0 -30.901699437495,-95.105651629515 L 0 0" fill="orange"></path>
      <path d="M -30.901699437495,-95.105651629515 A 100 100 0 0 0 -100,-1.2246467991474E-14 L 0 0" fill="yellow"></path>
      <path d="M -100,-1.2246467991474E-14 A 100 100 0 0 0 -58.778525229247,80.901699437495 L 0 0" fill="green"></path>
      <path d="M -58.778525229247,80.901699437495 A 100 100 0 0 0 100,0 L 0 0" fill="blue"></path>
      <circle r="100" cx="0" cy="0" fill="none" stroke-width="1" stroke="none"></circle>
    </g>
  </svg>