<svg viewBox="0 0 50 50" width="100" height="100" xmlns="http://www.w3.org/2000/svg">
<!-- quadratic Bezier curve with lines to illustrate control points -->
  <path d="M 10,10 Q 25,40 40,10" stroke="green" fill="transparent" />
  <!-- lines and "points" to show current control points, you should delete or edit manualy -->
  <line x1="10" y1="10" x2="25" y2="40" stroke="red" stroke-width="0.5" stroke-dasharray="3 3"></line>
  <line x1="25" y1="40" x2="40" y2="10" stroke="red" stroke-width="0.5" stroke-dasharray="3 3"></line>
  <circle cx="10" cy="10" r="0.5" stroke="red" stroke-width="0.5"></circle>
  <circle cx="25" cy="40" r="0.5" stroke="red" stroke-width="0.5"></circle>
  <circle cx="40" cy="10" r="0.5" stroke="red" stroke-width="0.5"></circle>
</svg>